Starbucks iOs App Analysis · Hello World!
…
## 
## The downloaded binary packages are in
##  /var/folders/gb/t5w_mwv15mv1rqgt0c4n0m500000gn/T//Rtmp275C1g/downloaded_packages

library(sentimentr)

## Warning: package 'sentimentr' was built under R version 3.5.2

library(tidytext)
library(stringr)
# identify and define sentiments/words
get_sentiments("bing")

## # A tibble: 6,788 x 2
##    word        sentiment
##    <chr>       <chr>    
##  1 2-faced     negative 
##  2 2-faces     negative 
##  3 a+          positive 
##  4 abnormal    negative 
##  5 abolish     negative 
##  6 abominable  negative 
##  7 abominably  negative 
##  8 abominate   negative 
##  9 abomination negative 
## 10 abort       negative 
## # ... with 6,778 more rows
…
